Airbnb Analysis
…
this_summary_table <- summary_table(seattle_listings)
this_summary_table

## $`Last 30 Days`
## # A tibble: 4 x 4
##   room_type        mean median Total
##   <chr>           <dbl>  <dbl> <int>
## 1 Entire home/apt 0.944      0  3309
## 2 Private room    0.512      0   403
## 3 Shared room     0.172      0     5
## 4 Hotel room      0          0     0
## 
## $`Last 30 Days Neighbourhood`
## # A tibble: 138 x 4
##    host_neighbourhood  mean median Total
##    <chr>              <dbl>  <dbl> <int>
##  1 Highline            4         4     4
##  2 Briarcrest          3         3     6
##  3 New Holly           3         3     3
##  4 Venice              3         3     3
##  5 Yesler Terrace      3.12      3    53
##  6 Downtown Austin     2         2     2
##  7 Holly Park          2         2     4
##  8 Kauai             2         2     2
##  9 Marina              2         2     2
## 10 Miller Park         2.33      2    14
## # ... with 128 more rows
## 
## $`Last 12 Months`
## # A tibble: 4 x 4
##   room_type         mean median Total
##   <chr>            <dbl>  <dbl> <int>
## 1 Entire home/apt 11.1        4 39042
## 2 Private room     7.04       2  5544
## 3 Shared room      1.24       1    36
## 4 Hotel room       0.867      0    13
## 
## $`Last 12 Months Neighbourhood`
## # A tibble: 138 x 4
##    host_neighbourhood  mean median Total
##    <chr>              <dbl>  <dbl> <int>
##  1 Marina              47     47      47
##  2 Yesler Terrace      39.6   46     673
##  3 Interbay            40.5   40.5    81
##  4 Palermo             34     34      34
##  5 South Scottsdale    26     26      26
##  6 Victory Heights     24.6   23.5   246
##  7 Highline            23     23      23
##  8 Rainier View        17     17      34
##  9 View Ridge          15.6   17      78
## 10 Alki                18.9   16     661
## # ... with 128 more rows
…
